<?xml version="1.0" standalone="no"?>
<!DOCTYPE svg PUBLIC "-//W3C//DTD SVG 1.1//EN" "http://www.w3.org/Graphics/SVG/1.1/DTD/svg11.dtd">
<svg xmlns="http://www.w3.org/2000/svg">
<metadata>Generated by Fontastic.me</metadata>
<defs>
<font id="cmc-store" horiz-adv-x="512">
<font-face font-family="cmc-store" units-per-em="512" ascent="480" descent="-32"/>
<missing-glyph horiz-adv-x="512" />

<glyph glyph-name="social-tumblr" unicode="&#98;" d="M404 440l-296 0c-20 0-36-16-36-36l0-296c0-20 16-36 36-36l296 0c20 0 36 16 36 36l0 296c0 20-16 36-36 36z m-62-308c-12-5-23-9-33-12-9-2-20-3-31-3-13 0-24 2-34 5-9 3-18 8-25 14-6 6-11 12-14 19-3 6-4 16-4 29l0 97-31 0 0 39c11 4 21 9 28 16 8 6 14 14 19 23 5 10 8 22 10 36l39 0 0-70 66 0 0-44-66 0 0-71c0-16 1-27 3-31 2-5 5-8 10-11 6-4 13-6 21-6 14 0 28 5 42 14l0-44z"/>
<glyph glyph-name="shopping-cart" unicode="&#97;" d="M201 73c0-10-3-19-11-26-7-7-15-10-25-10-11 0-19 3-26 10-7 7-11 16-11 26 0 10 4 19 11 26 7 7 15 11 26 11 10 0 18-4 25-11 8-7 11-16 11-26z m256 0c0-10-3-19-11-26-7-7-15-10-25-10-11 0-19 3-26 10-7 7-11 16-11 26 0 10 4 19 11 26 7 7 15 11 26 11 10 0 18-4 25-11 8-7 11-16 11-26z m37 311l0-146c0-5-2-9-5-12-3-4-7-6-12-7l-298-34c0-2 1-4 1-7 1-2 2-5 2-7 1-2 1-5 1-6 0-3-2-10-7-19l263 0c5 0 9-2 13-5 3-4 5-8 5-13 0-5-2-9-5-13-4-3-8-5-13-5l-293 0c-5 0-9 2-13 5-3 4-5 8-5 13 0 3 1 6 3 11 2 5 5 11 9 17 3 7 5 10 5 11l-50 235-58 0c-5 0-10 2-13 6-4 3-6 8-6 13 0 5 2 9 6 12 3 4 8 6 13 6l73 0c3 0 5-1 8-2 2-1 4-3 6-4 1-2 2-4 3-7 1-3 2-6 2-8 1-2 1-5 2-8 1-4 1-6 1-8l343 0c5 0 10-2 13-5 4-4 6-8 6-13z"/>
<glyph glyph-name="mail" unicode="&#99;" d="M269 232l189 193c-3 1-7 2-10 2l-384 0c-3 0-6-1-10-2l190-193c6-6 18-6 25 0z m25-26c-10-10-24-16-38-16-14 0-28 5-38 16l-189 192c0-3 0-5 0-8l0-268c0-20 16-37 35-37l384 0c19 0 35 17 35 37l0 268c0 3 0 5 0 8z"/>
<glyph glyph-name="social-facebook" unicode="&#100;" d="M420 440l-328 0c-11 0-20-9-20-20l0-328c0-11 9-20 20-20l177 0 0 142-48 0 0 56 48 0 0 41c0 48 29 74 71 74 20 0 38-2 43-3l0-49-29 0c-23 0-28-11-28-27l0-36 55 0-7-56-48 0 0-142 94 0c11 0 20 9 20 20l0 328c0 11-9 20-20 20z"/>
<glyph glyph-name="pinterest" unicode="&#101;" d="M512 256c0-47-11-90-34-129-23-39-54-70-93-93-39-23-82-34-129-34-25 0-49 4-72 11 12 19 21 38 25 54 3 7 8 31 18 71 4-10 13-17 24-23 12-7 25-10 39-10 27 0 50 8 72 23 21 15 38 36 49 63 11 27 17 56 17 90 0 26-6 49-20 72-13 22-32 41-57 55-25 14-54 21-86 21-23 0-44-4-65-11-20-6-38-14-52-26-14-10-25-22-36-36-10-14-17-28-22-43-5-15-7-30-7-44 0-24 5-45 13-62 9-18 22-30 40-37 5-3 10-1 11 6 1 3 3 6 4 11 1 6 2 9 2 10 1 5 0 10-3 14-12 14-18 31-18 51 0 33 12 63 35 86 24 25 54 36 91 36 34 0 60-9 80-27 19-18 28-42 28-71 0-37-8-70-23-97-16-26-36-40-59-40-14 0-24 6-33 15-8 10-10 22-8 36 2 7 5 17 9 30 5 14 8 24 11 35 2 9 4 19 4 25 0 11-4 21-10 28-6 7-14 11-26 11-14 0-25-7-35-20-9-12-14-28-14-46 0-17 3-31 9-41l-33-141c-5-15-6-35-5-58-45 20-83 51-111 94-28 42-42 90-42 141 0 47 11 90 34 129 23 39 54 70 93 93 39 23 82 34 129 34 47 0 90-11 129-34 39-23 70-54 93-93 23-39 34-82 34-129z"/>
<glyph glyph-name="twitter" unicode="&#102;" d="M481 395c-13-18-28-34-46-47 0-3 0-7 0-12 0-25-3-50-11-74-7-25-18-49-33-71-14-23-32-43-52-61-21-17-45-31-74-41-29-11-60-16-92-16-52 0-99 14-142 42 7-1 14-2 22-2 43 0 81 14 115 40-20 0-38 6-54 18-16 12-27 27-33 46 7-1 13-2 18-2 8 0 16 1 24 4-21 4-39 15-53 31-14 17-21 37-21 59l0 1c13-7 27-11 42-11-13 8-23 19-30 32-8 14-11 29-11 44 0 17 4 33 12 47 23-28 51-51 84-68 33-17 69-27 107-29-2 8-3 15-3 22 0 25 9 47 27 65 18 18 40 27 66 27 26 0 49-10 67-29 21 4 40 11 59 22-7-22-21-39-41-51 18 2 35 7 53 14z"/>
<glyph glyph-name="search" unicode="&#103;" d="M493 96l-125 125c18 29 29 62 29 99 0 106-86 192-192 192-106 0-192-86-192-192 0-106 86-192 192-192 36 0 70 11 99 28l125-124c9-9 23-9 32 0l32 32c9 9 9 23 0 32z m-288 96c-71 0-128 57-128 128 0 71 57 128 128 128 70 0 128-57 128-128 0-71-58-128-128-128z"/>
<glyph glyph-name="nav-thin" unicode="&#104;" d="M0 426l0-57 512 0 0 57z m0-142l0-56 512 0 0 56z m0-141l0-57 512 0 0 57z"/>
<glyph glyph-name="three-bars" unicode="&#105;" d="M64 416l0-64 384 0 0 64z m0-192l384 0 0 64-384 0z m0-128l384 0 0 64-384 0z"/>
<glyph glyph-name="thumbnails-large" unicode="&#106;" d="M238 219l0-109c0-10-4-19-11-26-7-7-16-11-26-11l-146 0c-10 0-19 4-26 11-7 7-11 16-11 26l0 109c0 10 4 19 11 26 7 7 16 11 26 11l146 0c10 0 19-4 26-11 7-7 11-16 11-26z m0 220l0-110c0-10-4-18-11-26-7-7-16-10-26-10l-146 0c-10 0-19 3-26 10-7 8-11 16-11 26l0 110c0 10 4 18 11 26 7 7 16 10 26 10l146 0c10 0 19-3 26-10 7-8 11-16 11-26z m256-220l0-109c0-10-4-19-11-26-7-7-16-11-26-11l-146 0c-10 0-19 4-26 11-7 7-11 16-11 26l0 109c0 10 4 19 11 26 7 7 16 11 26 11l146 0c10 0 19-4 26-11 7-7 11-16 11-26z m0 220l0-110c0-10-4-18-11-26-7-7-16-10-26-10l-146 0c-10 0-19 3-26 10-7 8-11 16-11 26l0 110c0 10 4 18 11 26 7 7 16 10 26 10l146 0c10 0 19-3 26-10 7-8 11-16 11-26z"/>
<glyph glyph-name="list-2" unicode="&#107;" d="M146 155l0-54c0-8-2-15-8-20-5-5-12-8-19-8l-92 0c-7 0-14 3-19 8-5 5-8 12-8 20l0 54c0 8 3 15 8 20 5 5 12 8 19 8l92 0c7 0 14-3 19-8 6-5 8-12 8-20z m0 147l0-55c0-8-2-14-8-20-5-5-12-8-19-8l-92 0c-7 0-14 3-19 8-5 6-8 12-8 20l0 55c0 7 3 14 8 19 5 5 12 8 19 8l92 0c7 0 14-3 19-8 6-5 8-12 8-19z m366-147l0-54c0-8-3-15-8-20-5-5-12-8-19-8l-275 0c-7 0-14 3-19 8-5 5-8 12-8 20l0 54c0 8 3 15 8 20 5 5 12 8 19 8l275 0c7 0 14-3 19-8 5-5 8-12 8-20z m-366 293l0-55c0-7-2-14-8-19-5-6-12-8-19-8l-92 0c-7 0-14 2-19 8-5 5-8 12-8 19l0 55c0 8 3 14 8 19 5 6 12 8 19 8l92 0c7 0 14-2 19-8 6-5 8-11 8-19z m366-146l0-55c0-8-3-14-8-20-5-5-12-8-19-8l-275 0c-7 0-14 3-19 8-5 6-8 12-8 20l0 55c0 7 3 14 8 19 5 5 12 8 19 8l275 0c7 0 14-3 19-8 5-5 8-12 8-19z m0 146l0-55c0-7-3-14-8-19-5-6-12-8-19-8l-275 0c-7 0-14 2-19 8-5 5-8 12-8 19l0 55c0 8 3 14 8 19 5 6 12 8 19 8l275 0c7 0 14-2 19-8 5-5 8-11 8-19z"/>
</font></defs></svg>
